{
    "api": "0.13",
    "space": "Hacklab",
    "logo": "http://hacklab.kiev.ua/wp-content/uploads/2014/02/HackLab21.gif",
    "url": "http://hacklab.kiev.ua",
    "location": {
        "address": "Novokostyantynivska Street 1B, Kyiv, Ukraine",
        "lat": 50.478480, 
        "lon": 30.491779
    },
    "contact": {
        "facebook": "https://www.facebook.com/HackLabKiev/",
        "email": "info@hacklab.kiev.ua"
    },
    "issue_report_channels": [
        "email"
    ],
    "state": {
        "open": null
    }
}
